{"perguntas": [
   {"titulo":"2+3=?","opcoes":["7","5","4"],"certa":"B","filtro":"+", "dificuldade":"1"},
   {"titulo":"1+3=?","opcoes":["2","5","4"],"certa":"C","filtro":"+", "dificuldade":"1"},
   {"titulo":"8+1=?","opcoes":["9","8","7"],"certa":"A","filtro":"+", "dificuldade":"1"},
   {"titulo":"1+1=?","opcoes":["2","3","4"],"certa":"A","filtro":"+", "dificuldade":"1"},
   {"titulo":"5+3=?","opcoes":["7","5","8"],"certa":"C","filtro":"+", "dificuldade":"1"},
   {"titulo":"3+3=?","opcoes":["6","5","4"],"certa":"A","filtro":"+", "dificuldade":"1"},
  {"titulo":"1+2=?","opcoes":["2","3","4"],"certa":"B","filtro":"+", "dificuldade":"1"},
   {"titulo":"5+4=?","opcoes":["7","5","9"],"certa":"C","filtro":"+", "dificuldade":"1"},
   {"titulo":"3+2=?","opcoes":["6","5","4"],"certa":"B","filtro":"+", "dificuldade":"1"},
   {"titulo":"2+?=5","opcoes":["7","3","4"],"certa":"B","filtro":"+", "dificuldade":"2"},
   {"titulo":"?+3=4","opcoes":["7","1","4"],"certa":"B","filtro":"+", "dificuldade":"2"},
   {"titulo":"2+?=7","opcoes":["5","9","4"],"certa":"A","filtro":"+", "dificuldade":"2"},
   {"titulo":"4+?=8","opcoes":["6","5","4"],"certa":"C","filtro":"+", "dificuldade":"2"},
   {"titulo":"4+?=6","opcoes":["2","5","4"],"certa":"A","filtro":"+", "dificuldade":"2"},
   {"titulo":"1+?=7","opcoes":["7","6","4"],"certa":"B","filtro":"+", "dificuldade":"2"},
   {"titulo":"2+?=4","opcoes":["7","5","2"],"certa":"C","filtro":"+", "dificuldade":"2"},
   {"titulo":"12+13=?","opcoes":["25","15","24"],"certa":"A","filtro":"+", "dificuldade":"3"},
   {"titulo":"12+12=?","opcoes":["19","20","24"],"certa":"C","filtro":"+", "dificuldade":"3"},
   {"titulo":"12+11=?","opcoes":["23","25","24"],"certa":"A","filtro":"+", "dificuldade":"3"},
   {"titulo":"12+7=?","opcoes":["15","19","17"],"certa":"B","filtro":"+", "dificuldade":"3"},
   {"titulo":"12+15=?","opcoes":["27","35","24"],"certa":"A","filtro":"+", "dificuldade":"3"},
   {"titulo":"42+27=?","opcoes":["58","63","69"],"certa":"C","filtro":"+", "dificuldade":"3"},
    {"titulo":"32+43=?","opcoes":["75","68","74"],"certa":"A","filtro":"+", "dificuldade":"3"},
   {"titulo":"22+14=?","opcoes":["33","36","30"],"certa":"B","filtro":"+", "dificuldade":"3"},
   {"titulo":"33+11=?","opcoes":["44","55","49"],"certa":"A","filtro":"+", "dificuldade":"3"},
   {"titulo":"44+31=?","opcoes":["73","71","75"],"certa":"C","filtro":"+", "dificuldade":"3"},
   {"titulo":"50+40=?","opcoes":["80","90","70"],"certa":"B","filtro":"+", "dificuldade":"3"},
   {"titulo":"12+7=?","opcoes":["19","5","4"],"certa":"A","filtro":"+", "dificuldade":"3"},
   {"titulo":"8-1=?","opcoes":["7","5","4"],"certa":"A","filtro":"-", "dificuldade":"1"},
   {"titulo":"3-1=?","opcoes":["3","2","4"],"certa":"B","filtro":"-", "dificuldade":"1"},
   {"titulo":"10-1=?","opcoes":["9","8","7"],"certa":"A","filtro":"-", "dificuldade":"1"},
   {"titulo":"5-1=?","opcoes":["2","3","4"],"certa":"C","filtro":"-", "dificuldade":"1"},
   {"titulo":"10-3=?","opcoes":["7","5","8"],"certa":"A","filtro":"-", "dificuldade":"1"},
   {"titulo":"9-3=?","opcoes":["5","4","6"],"certa":"C","filtro":"-", "dificuldade":"1"},
   {"titulo":"12-?=5","opcoes":["7","3","4"],"certa":"A","filtro":"-", "dificuldade":"2"},
   {"titulo":"14-?=7","opcoes":["6","7","4"],"certa":"B","filtro":"-", "dificuldade":"2"},
   {"titulo":"8-?=2","opcoes":["4","5","6"],"certa":"C","filtro":"-", "dificuldade":"2"},
   {"titulo":"9-?=3","opcoes":["6","5","4"],"certa":"A","filtro":"-", "dificuldade":"2"},
   {"titulo":"4-?=2","opcoes":["1","2","4"],"certa":"B","filtro":"-", "dificuldade":"2"},
   {"titulo":"?-2=5","opcoes":["7","6","4"],"certa":"A","filtro":"-", "dificuldade":"2"},
   {"titulo":"11-?=9","opcoes":["7","5","2"],"certa":"C","filtro":"-", "dificuldade":"2"},
   {"titulo":"14-13=?","opcoes":["4","3","1"],"certa":"C","filtro":"-", "dificuldade":"3"},
   {"titulo":"36-12=?","opcoes":["24","25","22"],"certa":"A","filtro":"-", "dificuldade":"3"},
   {"titulo":"36-3=?","opcoes":["23","33","34"],"certa":"B","filtro":"-", "dificuldade":"3"},
   {"titulo":"12-10=?","opcoes":["2","5","4"],"certa":"A","filtro":"-", "dificuldade":"3"},
   {"titulo":"42-10=?","opcoes":["32","35","44"],"certa":"A","filtro":"-", "dificuldade":"3"},
   {"titulo":"20-10=?","opcoes":["10","5","4"],"certa":"A","filtro":"-", "dificuldade":"3"},
   {"titulo":"84-13=?","opcoes":["61","71","97"],"certa":"B","filtro":"-", "dificuldade":"3"},
   {"titulo":"36-12=?","opcoes":["21","25","24"],"certa":"C","filtro":"-", "dificuldade":"3"},
   {"titulo":"56-17=?","opcoes":["38","35","39"],"certa":"C","filtro":"-", "dificuldade":"3"},
   {"titulo":"42-20=?","opcoes":["22","25","14"],"certa":"A","filtro":"-", "dificuldade":"3"},
   {"titulo":"52-10=?","opcoes":["30","50","42"],"certa":"C","filtro":"-", "dificuldade":"3"},
   {"titulo":"41-13=?","opcoes":["20","28","31"],"certa":"B","filtro":"-", "dificuldade":"3"},
   {"titulo":"8*1=?","opcoes":["8","5","4"],"certa":"A","filtro":"*", "dificuldade":"1"},
   {"titulo":"3*2=?","opcoes":["6","5","4"],"certa":"A","filtro":"*", "dificuldade":"1"},
   {"titulo":"4*3=?","opcoes":["12","8","16"],"certa":"A","filtro":"*", "dificuldade":"1"},
   {"titulo":"3*3=?","opcoes":["6","9","10"],"certa":"B","filtro":"*", "dificuldade":"1"},
   {"titulo":"10*3=?","opcoes":["13","30","20"],"certa":"B","filtro":"*", "dificuldade":"1"},
   {"titulo":"9*3=?","opcoes":["16","27","25"],"certa":"B","filtro":"*", "dificuldade":"1"},
   {"titulo":"7*?=14","opcoes":["7","2","4"],"certa":"B","filtro":"*", "dificuldade":"2"},
   {"titulo":"9*?=27","opcoes":["7","1","3"],"certa":"C","filtro":"*", "dificuldade":"2"},
   {"titulo":"8*?=32","opcoes":["6","5","4"],"certa":"C","filtro":"*", "dificuldade":"2"},
   {"titulo":"5*?=25","opcoes":["7","5","4"],"certa":"B","filtro":"*", "dificuldade":"2"},
   {"titulo":"4*?=8","opcoes":["2","5","4"],"certa":"A","filtro":"*", "dificuldade":"2"},
   {"titulo":"?*7=49","opcoes":["7","9","6"],"certa":"A","filtro":"*", "dificuldade":"2"},
   {"titulo":"11*?=44","opcoes":["7","5","4"],"certa":"C","filtro":"*", "dificuldade":"2"},
   {"titulo":"14*13=?","opcoes":["188","182","184"],"certa":"B","filtro":"*", "dificuldade":"3"},
   {"titulo":"16*12=?","opcoes":["192","166","144"],"certa":"A","filtro":"*", "dificuldade":"3"},
   {"titulo":"11*10=?","opcoes":["100","50","110"],"certa":"C","filtro":"*", "dificuldade":"3"},
   {"titulo":"12*11=?","opcoes":["122","132","155"],"certa":"B","filtro":"*", "dificuldade":"3"},
   {"titulo":"9*9=?","opcoes":["80","90","81"],"certa":"C","filtro":"*", "dificuldade":"3"},
   {"titulo":"20*10=?","opcoes":["200","30","150"],"certa":"A","filtro":"*", "dificuldade":"3"},
   {"titulo":"6÷1=?","opcoes":["8","6","4"],"certa":"B","filtro":"÷", "dificuldade":"1"},
   {"titulo":"6÷2=?","opcoes":["2","5","3"],"certa":"C","filtro":"÷", "dificuldade":"1"},
   {"titulo":"10÷2=?","opcoes":["5","8","12"],"certa":"A","filtro":"÷", "dificuldade":"1"},
   {"titulo":"8÷2=?","opcoes":["5","3","4"],"certa":"C","filtro":"÷", "dificuldade":"1"},
   {"titulo":"9÷3=?","opcoes":["3","5","8"],"certa":"A","filtro":"÷", "dificuldade":"1"},
   {"titulo":"4÷2=?","opcoes":["6","2","4"],"certa":"B","filtro":"÷", "dificuldade":"1"},
   {"titulo":"12÷?=6","opcoes":["7","2","4"],"certa":"B","filtro":"÷", "dificuldade":"2"},
   {"titulo":"9÷?=3","opcoes":["7","1","3"],"certa":"C","filtro":"÷", "dificuldade":"2"},
   {"titulo":"10÷?=5","opcoes":["2","5","4"],"certa":"A","filtro":"÷", "dificuldade":"2"},
   {"titulo":"6÷?=2","opcoes":["6","3","4"],"certa":"B","filtro":"÷", "dificuldade":"2"},
   {"titulo":"6÷?=1","opcoes":["6","3","4"],"certa":"A","filtro":"÷", "dificuldade":"2"},
   {"titulo":"?÷1=6","opcoes":["1","6","4"],"certa":"B","filtro":"÷", "dificuldade":"2"},
   {"titulo":"30÷3=?","opcoes":["10","15","11"],"certa":"A","filtro":"÷", "dificuldade":"3"},
   {"titulo":"24÷2=?","opcoes":["20","12","14"],"certa":"B","filtro":"÷", "dificuldade":"3"},
   {"titulo":"33÷11=?","opcoes":["1","5","3"],"certa":"C","filtro":"÷", "dificuldade":"3"},
   {"titulo":"40÷4=?","opcoes":["8","10","6"],"certa":"B","filtro":"÷", "dificuldade":"3"},
   {"titulo":"26÷2=?","opcoes":["22","13","10"],"certa":"B","filtro":"÷", "dificuldade":"3"},
   {"titulo":"20÷10=?","opcoes":["4","5","2"],"certa":"C","filtro":"÷", "dificuldade":"3"}

]}
